<?xml version="1.0" encoding="utf-8"?>
<!-- Generator: Adobe Illustrator 19.0.1, SVG Export Plug-In . SVG Version: 6.00 Build 0)  -->
<svg version="1.1" id="Слой_1" xmlns="http://www.w3.org/2000/svg" xmlns:xlink="http://www.w3.org/1999/xlink" x="0px" y="0px"
	 viewBox="107 170.9 810 500" style="enable-background:new 107 170.9 810 500;" xml:space="preserve">
<title>577AABDB-E7F2-4B11-8247-FFF309DA4949</title>
<desc>Created with sketchtool.</desc>
<path d="M293.3,46.5c-40.5,40.3-40.6,105.9-0.3,146.4l228.2,229l-229,228.2c-40.5,40.3-40.6,105.9-0.3,146.4
	c40.3,40.5,105.9,40.6,146.4,0.3l293.4-292.4c22.5-22.5,32.6-52.6,30-82c2.6-29.4-7.4-59.6-29.8-82.2L439.7,46.7
	C399.4,6.2,333.9,6.1,293.3,46.5z"/>
</svg>
