<?xml version="1.0" encoding="utf-8"?>
<!-- Generator: Adobe Illustrator 19.0.1, SVG Export Plug-In . SVG Version: 6.00 Build 0)  -->
<svg version="1.1" id="Слой_1" xmlns="http://www.w3.org/2000/svg" xmlns:xlink="http://www.w3.org/1999/xlink" x="0px" y="0px"
	 width="500px" height="500px" viewBox="-514 1 500 500" enable-background="new -514 1 500 500" xml:space="preserve">
<title>F0706B8F-3391-4CEA-A1D0-A94C7D9EC528</title>
<desc>Created with sketchtool.</desc>
<path d="M-186,251L-30.1,95.1c21.5-21.5,21.5-56.4,0-78s-56.4-21.5-78,0L-264,173L-419.9,17.1c-21.5-21.5-56.4-21.5-78,0
	c-21.5,21.5-21.5,56.4,0,78L-342,251l-155.9,155.9c-21.5,21.5-21.5,56.4,0,78c21.5,21.5,56.4,21.5,78,0L-264,329l155.9,155.9
	c21.5,21.5,56.4,21.5,78,0s21.5-56.4,0-78L-186,251z"/>
</svg>
