<?xml version="1.0" encoding="utf-8"?>
<!-- Generator: Adobe Illustrator 19.0.1, SVG Export Plug-In . SVG Version: 6.00 Build 0)  -->
<svg version="1.1" id="Слой_1" xmlns:sketch="http://www.bohemiancoding.com/sketch/ns"
	 xmlns="http://www.w3.org/2000/svg" xmlns:xlink="http://www.w3.org/1999/xlink" x="0px" y="0px" width="500px" height="500px"
	 viewBox="-504 1 500 500" enable-background="new -504 1 500 500" xml:space="preserve">
<title>mark</title>
<desc>Created with Sketch.</desc>
<g id="Page-1_1_" sketch:type="MSPage">
	<g id="mark" sketch:type="MSLayerGroup">
		<g id="Page-1" sketch:type="MSShapeGroup">
			<g id="GUI_">
				<g id="icon_mark">
					<path id="Oval-3" opacity="0.2" enable-background="new    " d="M-54,251c0-110.5-89.5-200-200-200s-200,89.5-200,200
						s89.5,200,200,200S-54,361.5-54,251L-54,251z M-504,251C-504,112.9-392.1,1-254,1S-4,112.9-4,251s-111.9,250-250,250
						S-504,389.1-504,251L-504,251z"/>
					<g id="arrow-copy-3" transform="translate(5.000000, 2.000000)">
						<path id="Rectangle" d="M-327.6,207l56.7,111.4c6.3,12.3,1.4,27.4-10.9,33.6l0,0c-12.3,6.3-27.4,1.4-33.6-10.9l-56.7-111.4
							c-6.3-12.3-1.4-27.4,10.9-33.6l0,0C-348.9,189.8-333.9,194.7-327.6,207z"/>
						<path id="Rectangle-Copy" d="M-142.7,108.6l-111.9,251.2c-5.6,12.6-20.4,18.3-33,12.7l0,0c-12.6-5.6-18.3-20.4-12.7-33
							l111.9-251.2c5.6-12.6,20.4-18.3,33-12.7l0,0C-142.8,81.2-137.1,95.9-142.7,108.6z"/>
					</g>
				</g>
			</g>
		</g>
	</g>
</g>
</svg>
