<?xml version="1.0" encoding="utf-8"?>
<!-- Generator: Adobe Illustrator 19.0.1, SVG Export Plug-In . SVG Version: 6.00 Build 0)  -->
<svg version="1.1" id="Слой_1" xmlns:sketch="http://www.bohemiancoding.com/sketch/ns"
	 xmlns="http://www.w3.org/2000/svg" xmlns:xlink="http://www.w3.org/1999/xlink" x="0px" y="0px" width="300px" height="500px"
	 viewBox="-419.5 0.5 300 500" enable-background="new -419.5 0.5 300 500" xml:space="preserve">
<title>send</title>
<desc>Created with Sketch.</desc>
<g id="Page-1_1_" sketch:type="MSPage">
	<g id="send" transform="translate(0.000000, -1.000000)" sketch:type="MSLayerGroup">
		<g id="Page-1" sketch:type="MSShapeGroup">
			<g id="GUI_">
				<g id="icon_send">
					<path id="Combined-Shape-Copy-11" fill="#FFFFFF" d="M-126.1,251.1c4,17.3-0.7,36.2-13.9,49.4l-185.2,185.2
						c-20.5,20.5-53.6,20.7-74.3,0.1c-20.5-20.5-20-54.1,0.1-74.3l160.4-160.4L-399.3,90.7c-20.2-20.2-20.6-53.8-0.1-74.3
						c20.6-20.6,53.7-20.4,74.3,0.1L-140,201.7C-126.8,214.9-122,233.9-126.1,251.1L-126.1,251.1z"/>
				</g>
			</g>
		</g>
	</g>
</g>
</svg>
