<?xml version="1.0" encoding="utf-8"?>
<!-- Generator: Adobe Illustrator 19.0.1, SVG Export Plug-In . SVG Version: 6.00 Build 0)  -->
<svg version="1.1" id="Слой_1" xmlns="http://www.w3.org/2000/svg" xmlns:xlink="http://www.w3.org/1999/xlink" x="0px" y="0px"
	 width="500px" height="500px" viewBox="-507.5 1 500 500" enable-background="new -507.5 1 500 500" xml:space="preserve">
<title>9A82C8AC-2437-49E6-BB0D-0BD388BC487D</title>
<desc>Created with sketchtool.</desc>
<g id="Page-1" opacity="0.5">
	<g id="GUI_" transform="translate(-1669.000000, -521.000000)">
		<g id="icon_past_projects-copy-3" transform="translate(1670.500000, 522.000000)">
			<path fill="#FFFFFF" d="M-259,500c-137.8,0-250-112.2-250-250S-396.8,0-259,0S-9,112.2-9,250S-121.2,500-259,500z M-259,62.5
				c-103.4,0-187.5,84.1-187.5,187.5s84.1,187.5,187.5,187.5S-71.5,353.4-71.5,250S-155.6,62.5-259,62.5z"/>
			<ellipse id="Oval-45" fill="#FFFFFF" cx="-352.8" cy="187.5" rx="31.3" ry="31.3"/>
			<ellipse id="Oval-45-Copy" fill="#FFFFFF" cx="-165.3" cy="187.5" rx="31.3" ry="31.3"/>
			<path fill="#FFFFFF" d="M-259,398.4c-60.3,0-109.4-49.1-109.4-109.4c0-17.3,14-31.3,31.3-31.3s31.3,14,31.3,31.3
				c0,25.8,21,46.9,46.9,46.9s46.9-21,46.9-46.9c0-17.3,14-31.3,31.3-31.3s31.3,14,31.3,31.3C-149.6,349.4-198.7,398.4-259,398.4z"
				/>
		</g>
	</g>
</g>
</svg>
